…
``` r
old_sites <- old_db |>
  select(
    #id = vector_site_id,
    site = vector_site_full_name,
    lat = vector_site_coordinates_latitude,
    lon = vector_site_coordinates_longitude
  ) |>
  distinct()

old_sites
```

    # A tibble: 2,444 × 3
       site                       lat   lon
       <chr>                    <dbl> <dbl>
     1 Eddo Kontola (Zwai Area)  7.98  38.7
     2 Kwameta                  -5.11  38.5
     3 Magundi                  -5.09  38.5
     4 Kwamhanya                -5.06  38.5
     5 Bagamoyo                 -5.07  38.4
     6 Balangai                 -4.93  38.4
     7 Ebolakounou               3.93  12.1
     8 Koundou                   3.9   12.1
     9 Labe                     11.3  -12.3
    10 Sombili                  11.5  -12.5
    # ℹ 2,434 more rows
…
old_dup
```

    # A tibble: 1,070 × 5
    # Groups:   lon, lat [914]
       site                                    lat     lon unique_site unique_coords
       <chr>                                 <dbl>   <dbl> <lgl>       <lgl>        
     1 3 Rice Field Districts in Bouake Ci…  7.69   -5.03  TRUE        FALSE        
     2 3 villages (Diomandou Walo, Diomand… 16.5   -14.4   TRUE        FALSE        
     3 4 contiguous villages near Asembo    -0.183  34.4   TRUE        FALSE        
     4 Abia                                  5.72    0.133 FALSE       TRUE         
     5 Abia                                  5.72    0.132 FALSE       TRUE         
     6 Abia                                  5.72   -0.133 FALSE       TRUE         
     7 Abidjan                               5.33   -4.03  FALSE       TRUE         
     8 Abidjan                               5.33   -4.03  FALSE       TRUE         
     9 Abidjan                               5.34   -4.03  FALSE       TRUE         
    10 Abuda                                15.4    36.5   TRUE        FALSE        
    # ℹ 1,060 more rows
…
#### Duplicated site; unique coordinates:

``` r
old_dup |>
  filter(
    !unique_site & unique_coords
  )
```

    # A tibble: 793 × 5
    # Groups:   lon, lat [793]
       site         lat    lon unique_site unique_coords
       <chr>      <dbl>  <dbl> <lgl>       <lgl>        
     1 Abia        5.72  0.133 FALSE       TRUE         
     2 Abia        5.72  0.132 FALSE       TRUE         
     3 Abia        5.72 -0.133 FALSE       TRUE         
     4 Abidjan     5.33 -4.03  FALSE       TRUE         
     5 Abidjan     5.33 -4.03  FALSE       TRUE         
     6 Abidjan     5.34 -4.03  FALSE       TRUE         
     7 Abuja       9.18  7.17  FALSE       TRUE         
     8 Abuja       9.18  7.17  FALSE       TRUE         
     9 Adibosqual 15.7  38.6   FALSE       TRUE         
    10 Adibosqual 15.7  38.6   FALSE       TRUE         
    # ℹ 783 more rows
…
    [1] 326

Of which there are 326 unique site names.

#### Unique site; duplicated coordinates

``` r
old_dup |>
  filter(
    unique_site & !unique_coords
  ) |>
  arrange(lat, lon)
```

    # A tibble: 200 × 5
    # Groups:   lon, lat [111]
       site                     lat   lon unique_site unique_coords
       <chr>                  <dbl> <dbl> <lgl>       <lgl>        
     1 Nkunduze               -27.8  32.2 TRUE        FALSE        
     2 Nkunduzi               -27.8  32.2 TRUE        FALSE        
     3 Opansi                 -27.6  32.3 TRUE        FALSE        
     4 Mahlabaneni            -26.8  31.8 TRUE        FALSE        
     5 Mahlabaneni (Big Bend) -26.8  31.8 TRUE        FALSE        
     6 Mahlabaneni (big bend) -26.8  31.8 TRUE        FALSE        
     7 Luis  cabral           -25.9  32.5 TRUE        FALSE        
     8 Luis Cabral            -25.9  32.5 TRUE        FALSE        
     9 Hectorspruit           -25.4  31.9 TRUE        FALSE        
    10 Knp, SKUKUZA           -25.0  31.6 TRUE        FALSE        
    # ℹ 190 more rows
…
These make 200 unique names, as expected.

#### Duplicated site; duplicated coordinates

Arranged by site name:

``` r
old_dup |>
  filter(
    !unique_site & !unique_coords
  ) |>
  arrange(site)
```

    # A tibble: 77 × 5
    # Groups:   lon, lat [58]
       site                          lat   lon unique_site unique_coords
       <chr>                       <dbl> <dbl> <lgl>       <lgl>        
     1 Afan-Essokie                2.38  10    FALSE       FALSE        
     2 Agbalilame                  6.38   2.50 FALSE       FALSE        
     3 Agbalilame                  6.4    2.52 FALSE       FALSE        
     4 Ahero                      -0.183 34.9  FALSE       FALSE        
     5 Ambodifotatra & Lonkintsy -17.0   49.9  FALSE       FALSE        
     6 Asembo                     -0.182 34.4  FALSE       FALSE        
     7 Asembo                     -0.182 34.4  FALSE       FALSE        
     8 Asembo                     -0.183 34.4  FALSE       FALSE        
     9 Asembo Bay                 -0.183 34.4  FALSE       FALSE        
    10 Asembo Bay                 -0.182 34.4  FALSE       FALSE        
    # ℹ 67 more rows

And coordinates:

``` r
old_dup |>
  filter(
    !unique_site & !unique_coords
  ) |>
  arrange(lat, lon)
```

    # A tibble: 77 × 5
    # Groups:   lon, lat [58]
       site                        lat   lon unique_site unique_coords
       <chr>                     <dbl> <dbl> <lgl>       <lgl>        
     1 Ophansi                   -27.6  32.3 FALSE       FALSE        
     2 Komatipoort               -25.4  31.9 FALSE       FALSE        
     3 Knp, Shingwedzi           -23.1  31.4 FALSE       FALSE        
     4 Knp, Shingwedzi           -23.1  31.4 FALSE       FALSE        
     5 Malahlapanga              -22.9  31.0 FALSE       FALSE        
     6 Manarintsoa               -19    47.4 FALSE       FALSE        
     7 Mahazina                  -19.0  47.3 FALSE       FALSE        
     8 Ambodifotatra & Lonkintsy -17.0  49.9 FALSE       FALSE        
     9 Kanyemba                  -15.7  30.3 FALSE       FALSE        
    10 Camussamba                -12.8  15.7 FALSE       FALSE        
    # ℹ 67 more rows
…
## Matching

Sites, sorted by name in the new database:

``` r
new_sites <- new_db |>
  select(site, lat = latitude_1, lon = longitude_1) |>
  distinct() |>
  arrange(site)
new_sites
```

    # A tibble: 4,110 × 3
       site                                  lat   lon
       <chr>                               <dbl> <dbl>
     1 (El) Thamaniat                     16.0    32.6
     2 10 contiguous villages near Asembo -0.183  34.4
     3 10 villages (50 km NW Kisumu)       0.16   34.4
     4 10 villages near Farafenni         13.6   -15.6
     5 11 contiguous villages near Asembo -0.183  34.4
     6 11 villages (50 km NW Kisumu)       0.16   34.4
     7 12 contiguous villages near Asembo -0.183  34.4
     8 13 contiguous villages near Asembo -0.183  34.4
     9 14 contiguous villages near Asembo -0.183  34.4
    10 15 contiguous villages near Asembo -0.183  34.4
    # ℹ 4,100 more rows
…
We can prioritise (well, are only interested in) matching the sites with
missing coordinates

``` r
missing_sites <- new_sites |>
  filter(is.na(lat)) |>
  select(site)

missing_sites
```

    # A tibble: 713 × 1
       site                                                                         
       <chr>                                                                        
     1 16 Villages                                                                  
     2 16 villages(Kahoko, Rubirizi, Rwempisi , Kitwe, Nyakafura, Kabimbiri , Bugun…
     3 17 Unspecified villages North of Bo.                                         
     4 31 villages along Malindi, Kilifi, Kwale district coastline                  
     5 32 sites in Cameroon                                                         
     6 Abdel Daiem                                                                  
     7 Abeokuta                                                                     
     8 Abidha_Boi                                                                   
     9 Abidjan                                                                      
    10 Abobo (Tegne)                                                                
    # ℹ 703 more rows
…
site_match
```

    # A tibble: 885 × 4
       site                                                       lat   lon nmatches
       <chr>                                                    <dbl> <dbl>    <dbl>
     1 16 Villages                                              NA    NA           0
     2 16 villages(Kahoko, Rubirizi, Rwempisi , Kitwe, Nyakafu… NA    NA           0
     3 17 Unspecified villages North of Bo.                     NA    NA           0
     4 31 villages along Malindi, Kilifi, Kwale district coast… NA    NA           0
     5 32 sites in Cameroon                                     NA    NA           0
     6 Abdel Daiem                                              14.5  33.4         1
     7 Abeokuta                                                  7.16  3.35        1
     8 Abidha_Boi                                               NA    NA           0
     9 Abidjan                                                   5.33 -4.03        3
    10 Abidjan                                                   5.33 -4.03        3
    # ℹ 875 more rows

Sites with no match:

``` r
site_match |>
  filter(nmatches == 0)
```

    # A tibble: 371 × 4
       site                                                       lat   lon nmatches
       <chr>                                                    <dbl> <dbl>    <dbl>
     1 16 Villages                                                 NA    NA        0
     2 16 villages(Kahoko, Rubirizi, Rwempisi , Kitwe, Nyakafu…    NA    NA        0
     3 17 Unspecified villages North of Bo.                        NA    NA        0
     4 31 villages along Malindi, Kilifi, Kwale district coast…    NA    NA        0
     5 32 sites in Cameroon                                        NA    NA        0
     6 Abidha_Boi                                                  NA    NA        0
     7 Abobo (Tegne)                                               NA    NA        0
     8 Abu Rakham, Wad Awad, Tenedba                               NA    NA        0
     9 Abu-Eshrin                                                  NA    NA        0
    10 Abukako                                                     NA    NA        0
    # ℹ 361 more rows

**371 sites with no matching site name in the old data base.**

Sites with multiple matches:

``` r
site_match |>
  filter(nmatches > 1) |>
  print() |>
  write_csv("multiple_matches_20240409.csv")
```

    # A tibble: 264 × 4
       site         lat    lon nmatches
       <chr>      <dbl>  <dbl>    <dbl>
     1 Abidjan    5.33  -4.03         3
     2 Abidjan    5.33  -4.03         3
     3 Abidjan    5.34  -4.03         3
     4 Aguel-Hoc 19.5    0.854        2
     5 Aguel-Hoc 19.3    0.833        2
     6 Ahero     -0.183 34.9          6
     7 Ahero     -0.182 34.9          6
     8 Ahero     -0.181 34.9          6
     9 Ahero     -0.183 34.9          6
    10 Ahero     -0.184 34.9          6
    # ℹ 254 more rows
…
